Don’t Worry, Be Shiny - SOTR Rennes
…
Parce qu’on est tous un petit peu ornithologues

#remotes::install_github("allisonhorst/palmerpenguins")
data(penguins,package = "palmerpenguins")
penguins <- penguins %>%
  rename(bill_l = bill_length_mm, bill_d = bill_depth_mm, flip_l = flipper_length_mm, bm = body_mass_g)
penguins %>%
  print(n=2)

## # A tibble: 344 x 8
##   species island    bill_l bill_d flip_l    bm sex     year
##   <fct>   <fct>      <dbl>  <dbl>  <int> <int> <fct>  <int>
## 1 Adelie  Torgersen   39.1   18.7    181  3750 male    2007
## 2 Adelie  Torgersen   39.5   17.4    186  3800 female  2007
## # … with 342 more rows
…
